<svg xmlns='http://www.w3.org/2000/svg' viewBox='0 0 512 512' stroke="currentColor"><title>ionicons-v5-i</title>
<circle cx='184' cy='232' r='24' stroke="currentColor"/>
<line class="st5" x1="180.5" y1="340.3" x2="330.5" y2="340.3" fill="#FFFFFF" stroke-width="30" stroke-linecap="round" stroke-miterlimit="10" stroke="currentColor"/>
<circle cx='328' cy='232' r='24' stroke="currentColor"/><circle cx='256' cy='256' r='208' fill="none" stroke="currentColor" stroke-miterlimit="10" stroke-width="32"/></svg>